{
    "name": "Input",
    "rootNamespace": "",
    "references": [
        "RefTypes",
        "Unity.InputSystem",
        "StaticHelperMethods"
    ],
    "includePlatforms": [],
    "excludePlatforms": [],
    "allowUnsafeCode": false,
    "overrideReferences": false,
    "precompiledReferences": [],
    "autoReferenced": true,
    "defineConstraints": [],
    "versionDefines": [],
    "noEngineReferences": false
}